…
``` r
dive_dat <- read_csv(here::here('data/sattag', 'ZcTag084_DUML_series_20200108.csv'))

dive_dat %>% 
  select(DeployID, Day, Time, Depth, DRange)
```

    ## # A tibble: 3,878 × 5
    ##    DeployID Day         Time   Depth DRange
    ##    <chr>    <chr>       <time> <dbl>  <dbl>
    ##  1 ZcTag084 23-May-2019 12:50    267   27.5
    ##  2 ZcTag084 23-May-2019 12:55    267   27.5
    ##  3 ZcTag084 23-May-2019 13:00    170   26.5
    ##  4 ZcTag084 23-May-2019 13:05     12   12.5
    ##  5 ZcTag084 23-May-2019 13:10    534   54.5
    ##  6 ZcTag084 23-May-2019 13:15   1165  110. 
    ##  7 ZcTag084 23-May-2019 13:20   1360  112. 
    ##  8 ZcTag084 23-May-2019 13:25   1360  112. 
    ##  9 ZcTag084 23-May-2019 13:30   1360  112. 
    ## 10 ZcTag084 23-May-2019 13:35   1360  112. 
    ## # … with 3,868 more rows
…
